[
  {
    "id": "6971040566515729928",
    "name": {
      "zh-CN": "邹平"
    }
  },
  {
    "id": "6971052250357696013",
    "name": {
      "zh-CN": "上海"
    },
    "children": [
      {
        "id": "7025856510307747358",
        "name": {
          "zh-CN": "M78星云"
        }
      }
    ]
  },
  {
    "id": "6971052376455120391",
    "name": {
      "zh-CN": "银川"
    }
  },
  {
    "id": "7023622400000542241",
    "name": {
      "zh-CN": "e2e2j5Ql"
    },
    "children": [
      {
        "id": "7023627362369537539",
        "name": {
          "zh-CN": "测试地点xy"
        }
      }
    ]
  },
  {
    "id": "7016251603908888101",
    "name": {
      "zh-CN": "郑州"
    }
  },
  {
    "id": "6971052241990075934",
    "name": {
      "zh-CN": "张家口"
    }
  },
  {
    "id": "6971052413633562142",
    "name": {
      "zh-CN": "大庆"
    }
  },
  {
    "id": "6971052395400922661",
    "name": {
      "zh-CN": "邯郸"
    }
  },
  {
    "id": "6971052376954373668",
    "name": {
      "zh-CN": "杭州"
    }
  },
  {
    "id": "6863329982580524551",
    "name": {
      "en-US": "zhonghang",
      "zh-CN": "中航"
    }
  },
  {
    "id": "6971036497747265054",
    "name": {
      "zh-CN": "深圳"
    }
  },
  {
    "id": "7023634955729176101",
    "name": {
      "zh-CN": "PWB-地点测试"
    }
  },
  {
    "id": "7023632292111304196",
    "name": {
      "zh-CN": "wss地址"
    },
    "children": [
      {
        "id": "7023632809717777950",
        "name": {
          "zh-CN": "测试一个好好的地点"
        }
      }
    ]
  },
  {
    "id": "6990238121287812621",
    "name": {
      "zh-CN": "这是个地点"
    },
    "children": [
      {
        "id": "7022993369429329421",
        "name": {
          "zh-CN": "prehire 校验地点 A"
        }
      }
    ]
  },
  {
    "id": "6971052233219769892",
    "name": {
      "zh-CN": "阜阳"
    }
  },
  {
    "id": "6971052327079921163",
    "name": {
      "zh-CN": "济南"
    }
  },
  {
    "id": "6971038105826625060",
    "name": {
      "zh-CN": "成都"
    }
  },
  {
    "id": "6981816750601963044",
    "name": {
      "zh-CN": "pre测试的地点"
    }
  },
  {
    "id": "6971052305936418312",
    "name": {
      "zh-CN": "合肥"
    }
  },
  {
    "id": "7023643805593208359",
    "name": {
      "zh-CN": "蒙奇奇地点-雷克雅未克"
    },
    "children": [
      {
        "id": "7023647312421455398",
        "name": {
          "zh-CN": "EDG"
        }
      }
    ]
  },
  {
    "id": "7023640415853086222",
    "name": {
      "zh-CN": "cccc的人"
    }
  },
  {
    "id": "6971037110597993992",
    "name": {
      "zh-CN": "武汉"
    }
  },
  {
    "id": "6971038104308286984",
    "name": {
      "zh-CN": "北京"
    },
    "children": [
      {
        "id": "7023549197655885319",
        "name": {
          "zh-CN": "北京入职地点"
        }
      }
    ]
  },
  {
    "id": "6971052338467440140",
    "name": {
      "zh-CN": "西安"
    }
  },
  {
    "id": "7023628538276349451",
    "name": {
      "zh-CN": "Joker的测试地点"
    }
  },
  {
    "id": "6971052232569521701",
    "name": {
      "zh-CN": "重庆"
    }
  },
  {
    "id": "6971052386202682917",
    "name": {
      "zh-CN": "厦门"
    }
  },
  {
    "id": "6971043824579659268",
    "name": {
      "zh-CN": "东莞"
    }
  },
  {
    "id": "6971040564968048135",
    "name": {
      "zh-CN": "徐州"
    }
  },
  {
    "id": "6987285898174006814",
    "name": {
      "zh-CN": "自动化专用地点（勿动）"
    },
    "children": [
      {
        "id": "6995865218832254494",
        "name": {
          "zh-CN": "自动化专用地点下级"
        }
      },
      {
        "id": "6996932398982252046",
        "name": {
          "zh-CN": "自动化专用地点下级1255228"
        }
      },
      {
        "id": "6996934815014602248",
        "name": {
          "zh-CN": "自动化专用地点下级23488"
        }
      }
    ]
  },
  {
    "id": "6971052269307561485",
    "name": {
      "zh-CN": "天津"
    }
  },
  {
    "id": "6971043822751057411",
    "name": {
      "zh-CN": "菏泽"
    }
  },
  {
    "id": "6971037108039452174",
    "name": {
      "zh-CN": "长沙"
    }
  }
]
