{
  "tenant_id": "6963913041981490725",
  "column_meta": [
    {
      "id": "primary-id",
      "api_name": "pre_hire_id",
      "masked": false,
      "masked_eye_tooltip": {
        "open": null,
        "close": null
      },
      "name": {
        "en-US": "Prehire id"
      },
      "description": {
        "en-US": "Prehire id"
      },
      "category": {
        "id": "personal-info",
        "name": {
          "en-US": "Personal info",
          "zh-CN": "个人信息"
        }
      },
      "task_stage": {
        "id": "",
        "name": null
      },
      "default_width": {
        "en-US": 123,
        "zh-CN": 123
      },
      "is_task": false,
      "use_name_card": false,
      "value_type": "simple",
      "primary": true,
      "selected": true,
      "hidden": true
    },
    {
      "id": "common-name",
      "api_name": "personal_info.names.preferred.display_name_local_script",
      "masked": false,
      "masked_eye_tooltip": {
        "open": null,
        "close": null
      },
      "export": {
        "name": "Prehire_Name"
      },
      "name": {
        "en-US": "Common name",
        "zh-CN": "常用名"
      },
      "description": {
        "en-US": "Common name",
        "zh-CN": "常用名"
      },
      "category": {
        "id": "personal-info",
        "name": {
          "en-US": "Personal info",
          "zh-CN": "个人信息"
        }
      },
      "task_stage": {
        "id": "",
        "name": null
      },
      "default_width": {
        "en-US": 123,
        "zh-CN": 123
      },
      "is_task": false,
      "use_name_card": false,
      "value_type": "prehire-name",
      "primary": false,
      "selected": true,
      "hidden": false
    },
    {
      "id": "mobile-number",
      "api_name": "personal_info.phone.number",
      "masked": false,
      "masked_eye_tooltip": {
        "open": null,
        "close": null
      },
      "name": {
        "en-US": "Mobile number",
        "zh-CN": "电话号码"
      },
      "export": {
        "name": "Phone"
      },
      "description": {
        "en-US": "Mobile number",
        "zh-CN": ""
      },
      "category": {
        "id": "personal-info",
        "name": {
          "en-US": "Personal info",
          "zh-CN": "个人信息"
        }
      },
      "task_stage": {
        "id": "",
        "name": null
      },
      "default_width": {
        "en-US": 123,
        "zh-CN": 123
      },
      "is_task": false,
      "use_name_card": false,
      "value_type": "simple",
      "primary": false,
      "selected": true,
      "hidden": false
    },
    {
      "id": "email",
      "api_name": "personal_info.email",
      "masked": false,
      "masked_eye_tooltip": {
        "open": null,
        "close": null
      },
      "name": {
        "en-US": "Email",
        "zh-CN": "邮箱"
      },
      "export": {
        "name": "Personal_Email"
      },
      "description": {
        "en-US": "Email",
        "zh-CN": ""
      },
      "category": {
        "id": "personal-info",
        "name": {
          "en-US": "Personal info",
          "zh-CN": "个人信息"
        }
      },
      "task_stage": {
        "id": "",
        "name": null
      },
      "default_width": {
        "en-US": 123,
        "zh-CN": 123
      },
      "is_task": false,
      "use_name_card": false,
      "value_type": "simple",
      "primary": false,
      "selected": true,
      "hidden": false
    },
    {
      "id": "job-info-status",
      "api_name": "taskStatuses.1",
      "masked": false,
      "masked_eye_tooltip": {
        "open": null,
        "close": null
      },
      "name": {
        "en-US": "Job info",
        "zh-CN": "职位信息"
      },
      "export": {
        "name": "Job_Info"
      },
      "description": {
        "en-US": "Job info",
        "zh-CN": ""
      },
      "category": {
        "id": "actions",
        "name": {
          "en-US": "Action item status",
          "zh-CN": "入职任务状态"
        }
      },
      "task_stage": {
        "id": "PREBOARDING",
        "name": null
      },
      "default_width": {
        "en-US": 123,
        "zh-CN": 123
      },
      "is_task": true,
      "use_name_card": false,
      "value_type": "simple",
      "primary": false,
      "selected": true,
      "hidden": false
    },
    {
      "id": "personal-info-status",
      "api_name": "taskStatuses.2",
      "masked": false,
      "masked_eye_tooltip": {
        "open": null,
        "close": null
      },
      "name": {
        "en-US": "Personal info",
        "zh-CN": "个人信息"
      },
      "export": {
        "name": "Personal_Info"
      },
      "description": {
        "en-US": "Personal info",
        "zh-CN": "个人信息"
      },
      "category": {
        "id": "actions",
        "name": {
          "en-US": "Action item status",
          "zh-CN": "入职任务状态"
        }
      },
      "task_stage": {
        "id": "PREBOARDING",
        "name": null
      },
      "default_width": {
        "en-US": 123,
        "zh-CN": 123
      },
      "is_task": true,
      "use_name_card": false,
      "value_type": "simple",
      "primary": false,
      "selected": true,
      "hidden": false
    },
    {
      "id": "hire-date",
      "api_name": "job_info.hire_date",
      "masked": false,
      "masked_eye_tooltip": {
        "open": null,
        "close": null
      },
      "name": {
        "en-US": "Onboarding date",
        "zh-CN": "入职日期"
      },
      "export": {
        "name": "Hire_Date"
      },
      "sort_key": "hire_date",
      "description": {
        "en-US": "Onboarding date",
        "zh-CN": ""
      },
      "category": {
        "id": "job-info",
        "name": {
          "en-US": "Job info",
          "zh-CN": "职位信息"
        }
      },
      "task_stage": {
        "id": "",
        "name": null
      },
      "default_width": {
        "en-US": 123,
        "zh-CN": 123
      },
      "is_task": false,
      "use_name_card": false,
      "value_type": "date",
      "primary": false,
      "selected": true,
      "hidden": false
    },
    {
      "id": "work-location",
      "api_name": "job_info.work_location.i18n_name",
      "masked": false,
      "masked_eye_tooltip": {
        "open": null,
        "close": null
      },
      "name": {
        "en-US": "Onboarding location",
        "zh-CN": "入职地点"
      },
      "export": {
        "name": "Work_Location"
      },
      "sort_key": "onboard_location_id",
      "description": {
        "en-US": "Onboarding location",
        "zh-CN": ""
      },
      "category": {
        "id": "job-info",
        "name": {
          "en-US": "Job info",
          "zh-CN": "职位信息"
        }
      },
      "task_stage": {
        "id": "",
        "name": null
      },
      "default_width": {
        "en-US": 123,
        "zh-CN": 123
      },
      "is_task": false,
      "use_name_card": false,
      "value_type": "simple",
      "primary": false,
      "selected": true,
      "hidden": false
    },
    {
      "id": "workforce-type",
      "api_name": "job_info.workforce_type.i18n_name",
      "masked": false,
      "masked_eye_tooltip": {
        "open": null,
        "close": null
      },
      "name": {
        "en-US": "Workforce type",
        "zh-CN": "人员类型"
      },
      "export": {
        "name": "Workforce_Type"
      },
      "sort_key": "workforce_type_id",
      "description": {
        "en-US": "Workforce type",
        "zh-CN": ""
      },
      "category": {
        "id": "job-info",
        "name": {
          "en-US": "Job info",
          "zh-CN": "职位信息"
        }
      },
      "task_stage": {
        "id": "",
        "name": null
      },
      "default_width": {
        "en-US": 123,
        "zh-CN": 123
      },
      "is_task": false,
      "use_name_card": false,
      "value_type": "simple",
      "primary": false,
      "selected": true,
      "hidden": false
    },
    {
      "id": "department",
      "api_name": "job_info.department.i18n_name",
      "masked": false,
      "masked_eye_tooltip": {
        "open": null,
        "close": null
      },
      "name": {
        "en-US": "Department",
        "zh-CN": "部门"
      },
      "export": {
        "name": "Department"
      },
      "sort_key": "department_id",
      "description": {
        "en-US": "Department",
        "zh-CN": ""
      },
      "category": {
        "id": "job-info",
        "name": {
          "en-US": "Job info",
          "zh-CN": "职位信息"
        }
      },
      "task_stage": {
        "id": "",
        "name": null
      },
      "default_width": {
        "en-US": 123,
        "zh-CN": 123
      },
      "is_task": false,
      "use_name_card": false,
      "value_type": "simple",
      "primary": false,
      "selected": true,
      "hidden": false
    },
    {
      "id": "job-title",
      "api_name": "job_info.job.i18n_name",
      "masked": false,
      "masked_eye_tooltip": {
        "open": null,
        "close": null
      },
      "name": {
        "en-US": "Job",
        "zh-CN": "职务"
      },
      "export": {
        "name": "Job_Title"
      },
      "description": {
        "en-US": "Job",
        "zh-CN": "职务"
      },
      "category": {
        "id": "job-info",
        "name": {
          "en-US": "Job info",
          "zh-CN": "职位信息"
        }
      },
      "task_stage": {
        "id": "",
        "name": null
      },
      "default_width": {
        "en-US": 123,
        "zh-CN": 123
      },
      "is_task": false,
      "use_name_card": false,
      "value_type": "simple",
      "primary": false,
      "selected": true,
      "hidden": false
    },
    {
      "id": "job-family",
      "api_name": "job_info.job_family.i18n_name",
      "masked": false,
      "masked_eye_tooltip": {
        "open": null,
        "close": null
      },
      "name": {
        "en-US": "Job family",
        "zh-CN": "序列"
      },
      "export": {
        "name": "Job_Family"
      },
      "sort_key": "job_family_id",
      "description": {
        "en-US": "Job family",
        "zh-CN": ""
      },
      "category": {
        "id": "job-info",
        "name": {
          "en-US": "Job info",
          "zh-CN": "职位信息"
        }
      },
      "task_stage": {
        "id": "",
        "name": null
      },
      "default_width": {
        "en-US": 123,
        "zh-CN": 123
      },
      "is_task": false,
      "use_name_card": false,
      "value_type": "simple",
      "primary": false,
      "selected": true,
      "hidden": false
    },
    {
      "id": "direct-leader",
      "api_name": "job_info.direct_manager",
      "masked": false,
      "masked_eye_tooltip": {
        "open": null,
        "close": null
      },
      "name": {
        "en-US": "Direct leader",
        "zh-CN": "直属上级"
      },
      "export": {
        "name": "Direct_Manager"
      },
      "sort_key": "direct_manager_id",
      "description": {
        "en-US": "Direct leader",
        "zh-CN": ""
      },
      "category": {
        "id": "job-info",
        "name": {
          "en-US": "Job info",
          "zh-CN": "职位信息"
        }
      },
      "task_stage": {
        "id": "",
        "name": null
      },
      "default_width": {
        "en-US": 123,
        "zh-CN": 123
      },
      "is_task": false,
      "use_name_card": true,
      "value_type": "simple",
      "primary": false,
      "selected": true,
      "hidden": false
    },
    {
      "id": "contract-type",
      "api_name": "job_info.contract_info.type.i18n_name",
      "masked": false,
      "masked_eye_tooltip": {
        "open": null,
        "close": null
      },
      "name": {
        "en-US": "Contract type",
        "zh-CN": "合同类型"
      },
      "export": {
        "name": "Contract_Type"
      },
      "description": {
        "en-US": "Contract type",
        "zh-CN": ""
      },
      "category": {
        "id": "job-info",
        "name": {
          "en-US": "Job info",
          "zh-CN": "职位信息"
        }
      },
      "task_stage": {
        "id": "",
        "name": null
      },
      "default_width": {
        "en-US": 123,
        "zh-CN": 123
      },
      "is_task": false,
      "use_name_card": false,
      "value_type": "simple",
      "primary": false,
      "selected": false,
      "hidden": false
    },
    {
      "id": "contract-start-date",
      "api_name": "job_info.contract_info.start_date",
      "masked": false,
      "masked_eye_tooltip": {
        "open": null,
        "close": null
      },
      "name": {
        "en-US": "Contract start date",
        "zh-CN": "合同起始日期"
      },
      "export": {
        "name": "Contract_Start_Date"
      },
      "description": {
        "en-US": "Contract start date",
        "zh-CN": ""
      },
      "category": {
        "id": "job-info",
        "name": {
          "en-US": "Job info",
          "zh-CN": "职位信息"
        }
      },
      "task_stage": {
        "id": "",
        "name": null
      },
      "default_width": {
        "en-US": 123,
        "zh-CN": 123
      },
      "is_task": false,
      "use_name_card": false,
      "value_type": "date",
      "primary": false,
      "selected": false,
      "hidden": false
    },
    {
      "id": "contract-end-date",
      "api_name": "job_info.contract_info.end_date",
      "masked": false,
      "masked_eye_tooltip": {
        "open": null,
        "close": null
      },
      "name": {
        "en-US": "Contract end date",
        "zh-CN": "合同结束日期"
      },
      "export": {
        "name": "Contract_End_Date"
      },
      "description": {
        "en-US": "Contract end date",
        "zh-CN": ""
      },
      "category": {
        "id": "job-info",
        "name": {
          "en-US": "Job info",
          "zh-CN": "职位信息"
        }
      },
      "task_stage": {
        "id": "",
        "name": null
      },
      "default_width": {
        "en-US": 123,
        "zh-CN": 123
      },
      "is_task": false,
      "use_name_card": false,
      "value_type": "date",
      "primary": false,
      "selected": false,
      "hidden": false
    },
    {
      "id": "probation-start",
      "api_name": "job_info.probation_info.start_date",
      "masked": false,
      "masked_eye_tooltip": {
        "open": null,
        "close": null
      },
      "name": {
        "en-US": "Probation start date",
        "zh-CN": "试用期起始日期"
      },
      "export": {
        "name": "Probation_Start_Date"
      },
      "description": {
        "en-US": "Probation end date",
        "zh-CN": ""
      },
      "category": {
        "id": "job-info",
        "name": {
          "en-US": "Job info",
          "zh-CN": "职位信息"
        }
      },
      "task_stage": {
        "id": "",
        "name": null
      },
      "default_width": {
        "en-US": 123,
        "zh-CN": 123
      },
      "is_task": false,
      "use_name_card": false,
      "value_type": "date",
      "primary": false,
      "selected": false,
      "hidden": false
    },
    {
      "id": "offer-hr",
      "api_name": "job_info.offer_hr",
      "masked": false,
      "masked_eye_tooltip": {
        "open": null,
        "close": null
      },
      "name": {
        "en-US": "Offer HR",
        "zh-CN": "招聘负责人"
      },
      "export": {
        "name": "Offer_HR"
      },
      "description": {
        "en-US": "Offer HR",
        "zh-CN": "招聘负责人"
      },
      "category": {
        "id": "job-info",
        "name": {
          "en-US": "Job info",
          "zh-CN": "职位信息"
        }
      },
      "task_stage": {
        "id": "",
        "name": null
      },
      "default_width": {
        "en-US": 123,
        "zh-CN": 123
      },
      "is_task": false,
      "use_name_card": true,
      "value_type": "simple",
      "primary": false,
      "selected": false,
      "hidden": false
    },
    {
      "id": "onboarding-stage",
      "api_name": "stage.i18n_name",
      "masked": false,
      "masked_eye_tooltip": {
        "open": null,
        "close": null
      },
      "name": {
        "en-US": "Onboarding Status",
        "zh-CN": "入职状态"
      },
      "export": {
        "name": "Onboarding_Status"
      },
      "description": {
        "en-US": "Onboarding Status",
        "zh-CN": "Onboarding Status"
      },
      "category": {
        "id": "job-info",
        "name": {
          "en-US": "Job info",
          "zh-CN": "职位信息"
        }
      },
      "task_stage": {
        "id": "ALL",
        "name": null
      },
      "default_width": {
        "en-US": 123,
        "zh-CN": 123
      },
      "is_task": false,
      "use_name_card": false,
      "value_type": "simple",
      "primary": false,
      "selected": false,
      "hidden": false
    }
  ]
}
