{
  "version": "v2",
  "data": {},
  "fields_meta": [
    {
      "field_name": "OnboardTypeID",
      "value": {
        "id": "onsite"
      },
      "label": {
        "en-US": "Visa",
        "zh-CN": "\u7eed\u7ea6\u539f\u56e0"
      },
      "messages": {
        "required": {
          "en-US": "This field is required"
        }
      },
      "type": "string",
      "form_type": "select",
      "is_object": true,
      "required": true,
      "writable": true,
      "advanced": {
        "options": {
          "data": [],
          "type": "dynamic",
          "url": "/"
        }
      }
    },
    {
      "field_name": "OnboardDate",
      "value": "2020-12-25",
      "label": {
        "en-US": "Onboarding Date",
        "zh-CN": "\u7533\u8bf7\u7eed\u7ea6\u81f3"
      },
      "messages": {
        "required": {
          "en-US": "This field is required"
        }
      },
      "type": "date",
      "form_type": "date_picker",
      "is_object": false,
      "required": true,
      "writable": true,
      "advanced": {
        "style": {
          "format": "YYYY-MM-DD"
        }
      }
    },
    {
      "field_name": "OnboardLocationID",
      "value": {
        "id": "CN_131"
      },
      "label": {
        "en-US": "Onboarding Location",
        "zh-CN": "\u7eed\u7ea6\u539f\u56e0"
      },
      "messages": {
        "required": {
          "en-US": "This field is required"
        }
      },
      "type": "string",
      "form_type": "select",
      "is_object": true,
      "required": true,
      "writable": true,
      "advanced": {
        "options": {
          "data": [],
          "type": "dynamic",
          "url": "/"
        }
      }
    }
  ],
  "ui_meta": {
    "sections": [
      {
        "content": [
          {
            "content": [
              {"field_index": "OnboardTypeID"},
              {},
              {"field_index": "OnboardDate"},
              {"field_index": "OnboardLocationID"}
            ],
            "type": "fields"
          }
        ],
        "layout": {
          "columns": 2
        },
        "title": {
          "en-US": "Onboarding Info",
          "zh-CN": "\u57fa\u672c\u4fe1\u606f"
        }
      }
    ]
  }
}





