[
    {
        "task_name": "task_personal_info",
        "i18n_name": {
            "en-US": "Fill in Personal Information",
            "zh-CN": "\u586b\u5199\u4e2a\u4eba\u4fe1\u606f"
        },
        "description": {
            "en-US": "Completed on 2021-04-12 08:55",
            "zh-CN": "\u5df2\u4e8e 2021-04-12 08:55 \u5b8c\u6210"
        },
        "tag": {
            "en-US": "",
            "zh-CN": ""
        },
        "tag_style": "",
        "button": {
            "en-US": "View",
            "zh-CN": "\u67e5\u770b"
        },
        "button_style": "TRANSPARENT",
        "status": "IN_PROGRESS",
        "rejection_reason": ""
    },
    {
        "task_name": "task_choose_laptop",
        "i18n_name": {
            "en-US": "Choose Your Laptop",
            "zh-CN": "\u9009\u62e9\u7535\u8111"
        },
        "description": {
            "en-US": "Laptop is being prepared. You can't change your selection after April 30, 2021.",
            "zh-CN": "\u6b63\u5728\u4e3a\u4f60\u51c6\u5907\u7535\u8111\uff0c2021-04-30 \u4e4b\u540e\uff0c\u5c06\u65e0\u6cd5\u53d8\u66f4\u9886\u53d6\u65b9\u5f0f"
        },
        "tag": {
            "en-US": "",
            "zh-CN": ""
        },
        "tag_style": "",
        "button": {
            "en-US": "Edit",
            "zh-CN": "\u7f16\u8f91"
        },
        "button_style": "TRANSPARENT",
        "status": "IN_REVIEW",
        "rejection_reason": ""
    },
    {
        "task_name": "task_confirm_work_email",
        "i18n_name": {
            "en-US": "Confirm Your Work Email",
            "zh-CN": "\u786e\u8ba4\u5de5\u4f5c\u90ae\u7bb1"
        },
        "description": {
            "en-US": "Completed on 2021-04-12 08:57",
            "zh-CN": "\u5df2\u4e8e 2021-04-12 08:57 \u5b8c\u6210"
        },
        "tag": {
            "en-US": "",
            "zh-CN": ""
        },
        "tag_style": "GREY",
        "button": {
            "en-US": "View",
            "zh-CN": "\u67e5\u770b"
        },
        "button_style": "TRANSPARENT",
        "status": "COMPLETED",
        "rejection_reason": ""
    },
    {
        "task_name": "task_sign_and_upload_ea",
        "i18n_name": {
            "en-US": "Sign Employment Documents",
            "zh-CN": "\u7b7e\u7f72\u5165\u804c\u6587\u4ef6"
        },
        "description": {
            "en-US": "Completed on 2021-04-12 09:09",
            "zh-CN": "\u5df2\u4e8e 2021-04-12 09:09 \u5b8c\u6210"
        },
        "tag": {
            "en-US": "",
            "zh-CN": ""
        },
        "tag_style": "",
        "button": {
            "en-US": "View",
            "zh-CN": "\u67e5\u770b"
        },
        "button_style": "TRANSPARENT",
        "status": "COMPLETED",
        "rejection_reason": ""
    }
]
